{
  "project_info": {
    "project_number": "208381195874",
    "firebase_url": "https://instagame-rn-gameloft.firebaseio.com",
    "project_id": "instagame-rn-gameloft",
    "storage_bucket": "instagame-rn-gameloft.appspot.com"
  },
  "client": [
    {
      "client_info": {
        "mobilesdk_app_id": "1:208381195874:android:dd95eedbb7290645",
        "android_client_info": {
          "package_name": "com.instagameloft"
        }
      },
      "oauth_client": [
        {
          "client_id": "208381195874-16crkd3ci9gt8d7ioopr7d0md8im73dd.apps.googleusercontent.com",
          "client_type": 3
        }
      ],
      "api_key": [
        {
          "current_key": "AIzaSyBR3pkgdBZ_j0OIbSCdb3ueEswAZ0wkj1E"
        }
      ],
      "services": {
        "appinvite_service": {
          "other_platform_oauth_client": [
            {
              "client_id": "208381195874-16crkd3ci9gt8d7ioopr7d0md8im73dd.apps.googleusercontent.com",
              "client_type": 3
            }
          ]
        }
      }
    }
  ],
  "configuration_version": "1"
}